{
    "command":"cd cyber-range-api-business-unit && npm run apiunit-cicd",
    "apis":[
        {
            "port": "8094",
            "domain": "business-unit",
            "command": "npm run build && npm run dev",
            "priority": 3,
            "git": "git@code.vt.edu:cyber-range/cyber-range-api-business-unit.git",
            "name": "cyber-range-api-business-unit",
            "branch":"default_250",
            "env": {
                "AWS_ACCESS_KEY_ID": "a_non_empty_value",
                "AWS_SECRET_ACCESS_KEY": "a_non_empty_value",
                "AUTHENTICATION_API_BASE_URL": "http://auth:8081",
                "ENTITLEMENT_API_BASE_URL": "http://entitlement:8082",
                "BUSINESS_UNIT_API_DYNAMODB_HOST": "http://dynamodb:8000"
            }
        },
        {
            "port": "8081",
            "domain": "auth",
            "command": "npm run build && npm run dev",
            "priority": 1,
            "git": "git@code.vt.edu:cyber-range/cyber-range-api-authentication.git",
            "name": "cyber-range-api-authentication",
            "env": {
                "AWS_ACCESS_KEY_ID": "a_non_empty_value",
                "AWS_SECRET_ACCESS_KEY": "a_non_empty_value",
                "AUTHENTICATION_API_BASE_URL": "http://auth:8081",
                "ENTITLEMENT_API_BASE_URL": "http://entitlement:8082",
                "AUTHENTICATION_API_LOCAL_DYNAMODB_ENDPOINT": "http://dynamodb:8000"
            }
        },
        {
            "port": "8082",
            "domain": "entitlement",
            "command": "npm run build && npm run dev",
            "priority": 2,
            "git": "git@code.vt.edu:cyber-range/cyber-range-api-entitlement.git",
            "name": "cyber-range-api-entitlement",
            "env": {
                "AWS_ACCESS_KEY_ID": "a_non_empty_value",
                "AWS_SECRET_ACCESS_KEY": "a_non_empty_value",
                "AUTHENTICATION_API_BASE_URL": "http://auth:8081",
                "ENTITLEMENT_API_BASE_URL": "http://entitlement:8082",
                "ENTITLEMENT_API_LOCAL_DYNAMODB_ENDPOINT": "http://dynamodb:8000"
            }
        }
    ]
}